^C:\USERS\АЛЕКСАНДР\DOWNLOADS\MAIN(1).CPP
/c /ZI /JMC /nologo /W3 /WX- /diagnostics:classic /sdl /Od /Oy- /D _MBCS /Gm- /EHsc /RTC1 /MDd /GS /fp:precise /permissive- /Zc:wchar_t /Zc:forScope /Zc:inline /Fo"DEBUG\\" /Fd"DEBUG\VC141.PDB" /Gd /TP /analyze- /FC C:\USERS\АЛЕКСАНДР\DOWNLOADS\MAIN(1).CPP
^C:\USERS\АЛЕКСАНДР\SOURCE\REPOS\LR5\LR5\MAIN(1).CPP
/c /ZI /JMC /nologo /W3 /WX- /diagnostics:classic /sdl /Od /Oy- /D _MBCS /Gm- /EHsc /RTC1 /MDd /GS /fp:precise /permissive- /Zc:wchar_t /Zc:forScope /Zc:inline /Fo"DEBUG\\" /Fd"DEBUG\VC141.PDB" /Gd /TP /analyze- /FC C:\USERS\АЛЕКСАНДР\SOURCE\REPOS\LR5\LR5\MAIN(1).CPP
